{
	"serverOwner": "",
	"LogToFile": true,
	"appDownloadDirectory": "c:\\0.apps",
	"UseFirebase4CostDetemine": false,
	"UseFirebase": false,
	"silentMode": false,
	"preAllocateApps": false,
	"preAllocateApp_name": "MP_PS2",
	"preAllocateApp_owner": "demo",
	"preAllocateApp_cmdLineArg": "-ResX=1920 -ResY=1080",
	"turnServerMode": 3,
	"GpuMaxLimit": 2,
	"strunServerPort": 19302,
	"trunServerPort": 19303,
	"defaultSSLip_prod": "71.42.238.99",
	"defaultSSLip_dev": "71.42.238.99",
	"defaultSSLip": "71.42.238.99",
	"defaultSSLPort": 54321,
	"MMLineker_ipaddress": "71.42.238.99",
	"MMLineker_port4EL": 7123
}